Multiple endpoints
…
#> 
#> $model
#> ── Solved rxode2 object ──
#> ── Parameters ($params): ──
#>   THETA_ktr     ETA_ktr    THETA_ka      ETA_ka    THETA_cl      ETA_cl 
#>  0.10600000 -0.44069330 -0.08700000 -0.68841044 -2.03000000  0.82337734 
#>     THETA_v       ETA_v  THETA_emax    ETA_emax  THETA_ec50    ETA_ec50 
#>  2.07000000 -0.02274926  3.40000000  0.06853445  0.00724000  0.14188633 
#>  THETA_kout    ETA_kout    THETA_e0      ETA_e0 
#> -2.90000000 -0.19855571  4.57000000 -0.12374368 
#> ── Initial Conditions ($inits): ──
#>  depot    gut center effect 
#>      0      0      0      0 
#> ── First part of data (object): ──
#> # A tibble: 1,451 × 18
#>    time   ktr    ka    cl     v  emax  ec50   kout    e0    DCP    PD   kin
#>   <dbl> <dbl> <dbl> <dbl> <dbl> <dbl> <dbl>  <dbl> <dbl>  <dbl> <dbl> <dbl>
#> 1   0   0.716 0.461 0.299  7.75 0.970  1.16 0.0451  85.3 0      1      3.85
#> 2   0.1 0.716 0.461 0.299  7.75 0.970  1.16 0.0451  85.3 0.0204 0.983  3.85
#> 3   0.2 0.716 0.461 0.299  7.75 0.970  1.16 0.0451  85.3 0.0785 0.939  3.85
#> 4   0.3 0.716 0.461 0.299  7.75 0.970  1.16 0.0451  85.3 0.170  0.876  3.85
#> 5   0.4 0.716 0.461 0.299  7.75 0.970  1.16 0.0451  85.3 0.290  0.806  3.85
#> 6   0.5 0.716 0.461 0.299  7.75 0.970  1.16 0.0451  85.3 0.435  0.736  3.85
#> # ℹ 1,445 more rows
#> # ℹ 6 more variables: cp <dbl>, pca <dbl>, depot <dbl>, gut <dbl>,
#> #   center <dbl>, effect <dbl>
…
